{
  "resources": [
    {
      "name": "Items",
      "examples": [
        {
          "description": "Getting 10 items per search request",
          "link": "items/getting__items_per_search_request.json",
          "groups": "all"
        },
        {
          "description": "Getting 2nd page of search results",
          "link": "items/getting_nd_page_of_search_results.json",
          "groups": "all"
        },
        {
          "description": "Getting availabilities with distance",
          "link": "items/getting_availabilities_with_distance.json",
          "groups": "all"
        },
        {
          "description": "Getting availability of item in stores",
          "link": "items/getting_availability_of_item_in_stores.json",
          "groups": "all"
        },
        {
          "description": "Getting description of an item",
          "link": "items/getting_description_of_an_item.json",
          "groups": "all"
        },
        {
          "description": "Searching for items by barcode",
          "link": "items/searching_for_items_by_barcode.json",
          "groups": "all"
        },
        {
          "description": "Searching for items by name",
          "link": "items/searching_for_items_by_name.json",
          "groups": "all"
        }
      ]
    },
    {
      "name": "Stores",
      "examples": [
        {
          "description": "Getting all stores",
          "link": "stores/getting_all_stores.json",
          "groups": "all"
        },
        {
          "description": "Getting store schedule",
          "link": "stores/getting_store_schedule.json",
          "groups": "all"
        },
        {
          "description": "Getting updates on stores",
          "link": "stores/getting_updates_on_stores.json",
          "groups": "all"
        }
      ]
    }
  ]
}