{
  "resource": "Items",
  "http_method": "GET",
  "route": "/api/1/items/search",
  "description": "Getting 2nd page of search results",
  "explanation": null,
  "parameters": [
    {
      "required": true,
      "name": "q",
      "description": "Query string to search for"
    },
    {
      "default": "name",
      "name": "type",
      "description": "Type of the search. Possible values: name, barcode."
    },
    {
      "default": 25,
      "name": "per_page",
      "description": "Number of items to show on page"
    },
    {
      "default": 1,
      "name": "page",
      "description": "Page of the result to show"
    }
  ],
  "requests": [
    {
      "request_method": "GET",
      "request_path": "/api/1/items/search?q=Item&page=2&per_page=10",
      "request_body": null,
      "request_headers": {
        "Host": "example.org",
        "Cookie": ""
      },
      "request_query_parameters": {
        "q": "Item",
        "page": "2",
        "per_page": "10"
      },
      "request_content_type": null,
      "response_status": 200,
      "response_status_text": "OK",
      "response_body": "{\"response\":[{\"id\":13355,\"name\":\"Test Item 434\"},{\"id\":13356,\"name\":\"Test Item 435\"},{\"id\":13357,\"name\":\"Test Item 436\"},{\"id\":13358,\"name\":\"Test Item 437\"},{\"id\":13359,\"name\":\"Test Item 438\"},{\"id\":13360,\"name\":\"Test Item 439\"},{\"id\":13361,\"name\":\"Test Item 440\"},{\"id\":13362,\"name\":\"Test Item 441\"},{\"id\":13363,\"name\":\"Test Item 442\"},{\"id\":13364,\"name\":\"Test Item 443\"}],\"count\":10,\"pagination\":{\"current\":2,\"previous\":1,\"next\":3,\"per_page\":10,\"pages\":11,\"count\":101}}",
      "response_headers": {"X-Frame-Options":"SAMEORIGIN","X-XSS-Protection":"1; mode=block","X-Content-Type-Options":"nosniff","X-UA-Compatible":"chrome=1","Content-Length":"471","Content-Type":"application/json; charset=utf-8","ETag":"\"84b608d8df9babb34c022e4e20c1b22c\"","Cache-Control":"max-age=0, private, must-revalidate","X-Request-Id":"0f99ee87-b1f8-4dda-84c2-9273bfef4706","X-Runtime":"0.009157"},
      "response_content_type": "application/json; charset=utf-8",
      "curl": null
}
  ]
}