{
  "resource": "Items",
  "http_method": "GET",
  "route": "/api/1/items/search",
  "description": "Getting 10 items per search request",
  "explanation": null,
  "parameters": [
    {
      "required": true,
      "name": "q",
      "description": "Query string to search for"
    },
    {
      "default": "name",
      "name": "type",
      "description": "Type of the search. Possible values: name, barcode."
    },
    {
      "default": 25,
      "name": "per_page",
      "description": "Number of items to show on page"
    },
    {
      "default": 1,
      "name": "page",
      "description": "Page of the result to show"
    }
  ],
  "requests": [
    {
      "request_method": "GET",
      "request_path": "/api/1/items/search?q=Item&per_page=10",
      "request_body": null,
      "request_headers": {
        "Host": "example.org",
        "Cookie": ""
      },
      "request_query_parameters": {
        "q": "Item",
        "per_page": "10"
      },
      "request_content_type": null,
      "response_status": 200,
      "response_status_text": "OK",
      "response_body": "{\"response\":[{\"id\":13242,\"name\":\"Barcode Item\"},{\"id\":13244,\"name\":\"Test Item 325\"},{\"id\":13245,\"name\":\"Test Item 326\"},{\"id\":13246,\"name\":\"Test Item 327\"},{\"id\":13247,\"name\":\"Test Item 328\"},{\"id\":13248,\"name\":\"Test Item 329\"},{\"id\":13249,\"name\":\"Test Item 330\"},{\"id\":13250,\"name\":\"Test Item 331\"},{\"id\":13251,\"name\":\"Test Item 332\"},{\"id\":13252,\"name\":\"Test Item 333\"}],\"count\":10,\"pagination\":{\"current\":1,\"previous\":null,\"next\":2,\"per_page\":10,\"pages\":11,\"count\":101}}",
      "response_headers": {"X-Frame-Options":"SAMEORIGIN","X-XSS-Protection":"1; mode=block","X-Content-Type-Options":"nosniff","X-UA-Compatible":"chrome=1","Content-Length":"473","Content-Type":"application/json; charset=utf-8","ETag":"\"314afdf13778c59208589dd08fdf4a9c\"","Cache-Control":"max-age=0, private, must-revalidate","X-Request-Id":"66c0f433-9889-4d54-b97f-88d18437ec74","X-Runtime":"0.006637"},
      "response_content_type": "application/json; charset=utf-8",
      "curl": null
}
  ]
}