{
  "resource": "Stores",
  "http_method": "GET",
  "route": "/api/1/stores",
  "description": "Getting updates on stores",
  "explanation": null,
  "parameters": [
    {
      "required": true,
      "name": "city",
      "description": "Code of the city"
    },
    {
      "name": "page",
      "description": "Current page of stores"
    },
    {
      "name": "date",
      "description": "Date of the last update"
    }
  ],
  "requests": [
    {
      "request_method": "GET",
      "request_path": "/api/1/stores?date=2013-12-19+09%3A42%3A13+UTC",
      "request_body": null,
      "request_headers": {
        "Host": "example.org",
        "Cookie": ""
      },
      "request_query_parameters": {
        "date": "2013-12-19 09:42:13 UTC"
      },
      "request_content_type": null,
      "response_status": 200,
      "response_status_text": "OK",
      "response_body": "{\"response\":[{\"name\":\"Test Store 85\",\"lat\":-49.11619545112,\"lon\":42.7867822112632,\"address\":\"Street Name, 88\",\"sid\":\"2111590606392968\",\"group_id\":\"3419492550\",\"action\":\"update\"},{\"name\":\"Test Store 87\",\"lat\":61.2755708842648,\"lon\":71.5115450992279,\"address\":\"Street Name, 90\",\"sid\":\"8350411173\",\"group_id\":\"2108288000\",\"action\":\"delete\"}],\"count\":2,\"pagination\":{\"current\":1,\"previous\":null,\"next\":null,\"per_page\":25,\"pages\":1,\"count\":2}}",
      "response_headers": {"X-Frame-Options":"SAMEORIGIN","X-XSS-Protection":"1; mode=block","X-Content-Type-Options":"nosniff","X-UA-Compatible":"chrome=1","Content-Length":"438","Content-Type":"application/json; charset=utf-8","ETag":"\"67e8cd918f1943e498cf7cba8462b0c6\"","Cache-Control":"max-age=0, private, must-revalidate","X-Request-Id":"2551a419-e604-4104-93b0-c58b0f21d542","X-Runtime":"0.007727"},
      "response_content_type": "application/json; charset=utf-8",
      "curl": null
}
  ]
}